-1,-1,-1,-1,-1,-1,-1,-1,-1,-1,-1,-1,10398.55112919677,-1
-1,-1,-1,-1,-1,-1,-1,-1,-1,-1,-1,-1,1179422.633706923,-1
-1,-1,-1,-1,-1,-1,-1,-1,-1,-1,-1,-1,760990.8682034727,-1
-1,-1,-1,-1,-1,-1,-1,-1,-1,-1,-1,-1,45420.86753982209,-1
-1,-1,-1,-1,-1,-1,-1,-1,-1,-1,61212.30796539905,-1,14723.37620931229,-1
-1,-1,-1,-1,-1,-1,-1,-1,-1,-1,1076833.16666507,-1,1252.618571193669,-1
-1,-1,-1,-1,-1,-1,-1,-1,-1,-1,289435.6313046075,-1,528.1251715013042,-1
-1,-1,-1,-1,-1,-1,-1,-1,19467.06755149612,-1,230289.2686875866,-1,0,-1
-1,-1,-1,-1,-1,-1,-1,-1,525036.0959634143,-1,878.2802291530835,-1,0,-1
-1,-1,-1,-1,-1,-1,27697.26115257188,-1,6703208.302647192,-1,59.67309121807023,-1,0,-1
-1,-1,-1,-1,-1,-1,113787.9794438639,-1,366871.4129688882,-1,13.54251070068631,-1,0,-1
-1,-1,-1,-1,39352.83517098458,-1,1578120.313726875,-1,3793.258364060702,-1,0,-1,0,-1
-1,-1,-1,-1,681759.567510537,-1,482965.0982064087,-1,1121.654128297264,-1,0,-1,0,-1
-1,-1,-1,-1,-1,-1,-1,-1,-1,-1,-1,-1,-1,-1
-1,207919.5476643772,2338047.504431539,61.04561814614338,169883.6592425098,38.45806737363516,196.4827478877257,32.27742978303507,0,234.1547723802713,0,1068.321061196704,0,31393.32833446743
-1,3337697.754296807,8245498.204226446,65.85884283803068,2265.341774146257,265.8039385390854,115.4996076259211,2552.513014462781,0,8356.772559575042,0,358923.1432548754,0,2768320.630068256
-1,1285920.073246321,410361.3136036414,494.5204397813977,3187.987564577604,517.8387378811088,0,121999.736003986,0,513156.8104684761,0,383082.3077143105,0,90513.66515193852
-1,14574.41841496289,23788.03663533091,1326.09399538441,16.02444275831673,49529.75773113722,0,1521071.732747032,0,2188783.893819592,0,4416090.772185208,0,46901.95524493104
-1,14518.18594978999,1417.601542228803,147973.2437298033,0,1238327.882346505,0,58817.81193251115,0,119515.8507147864,0,15960.49263015962,0,8266.461547989578
-1,1001.049637319788,25.47823404528917,973328.1919185917,0,696625.6067272732,0,41221.07681872011,0,89504.83303655421,0,3918.58520449157,0,149.8821498083729
-1,0,0,111493.0101904085,0,25395.82683834581,0,3016.852385519433,0,176.9743621503756,0,327.749305214583,0,147.3625765078463
-1,0,0,48399.88935444856,0,634.7816807524711,0,213.7583704504881,0,26.38777903677017,0,0,0,27.32181100281421
-1,0,0,1106.087305576078,0,29.9318329965159,0,0,0,11.51397367926413,0,0,0,0
